objectPath,objectName,objectType,id
/Explore/Use Cases and Demos/IICS-Git Integration: SDLC,SCM Import from Git,PROCESS,9j569Y3hbAfiI87Nwrz2y1
/Explore,Use Cases and Demos,Project,7Z1n6DSEs8afyyFhpaJQMl
/Explore/Use Cases and Demos/IICS-Git Integration: SDLC,Git-Contents-API-actions,AI_CONNECTION,1euhYbqBxD5irXalrP3xeg
/Explore/Use Cases and Demos/IICS-Git Integration: SDLC,Git Contents API,AI_SERVICE_CONNECTOR,95YZ2KyEpBwg0tG9JVif8i
/Explore/Use Cases and Demos/IICS-Git Integration: SDLC,SCM Export to Git,PROCESS,etWz1BcWXKWbJvO5gNaPa6
/Explore/Use Cases and Demos/IICS-Git Integration: SDLC,IICS-REST-API-actions,AI_CONNECTION,8aOwbKjI2W7gAcny4H27ew
/Explore/Use Cases and Demos/IICS-Git Integration: SDLC,IICS REST API,AI_SERVICE_CONNECTOR,azoo16JYIMEgaZ8xsBhHOJ
/Explore/Use Cases and Demos,IICS-Git Integration: SDLC,Folder,1pLFOOLB0BXfA48BB5wnMk